max_attempts: 350
max_iters: 350
init_state.size: 8
init_state: not used for MIMIC
MIMIC
pop_size: 50
keep_pct: 0.1
best_state: [5 0 5 0 6 1 7 2]
best_fitness: -2.0
curve_fitness_values: [-2. -2. -2. -2. -2. -2. -2. -2. -2. -2. -2. -2. -2. -2. -2. -2. -2. -2.
 -2. -2. -2. -2. -2. -2. -2. -2. -2. -2. -2. -2. -2. -2. -2. -2. -2. -2.
 -2. -2. -2. -2. -2. -2. -2. -2. -2. -2. -2. -2. -2. -2. -2. -2. -2. -2.
 -2. -2. -2. -2. -2. -2. -2. -2. -2. -2. -2. -2. -2. -2. -2. -2. -2. -2.
 -2. -2. -2. -2. -2. -2. -2. -2. -2. -2. -2. -2. -2. -2. -2. -2. -2. -2.
 -2. -2. -2. -2. -2. -2. -2. -2. -2. -2. -2. -2. -2. -2. -2. -2. -2. -2.
 -2. -2. -2. -2. -2. -2. -2. -2. -2. -2. -2. -2. -2. -2. -2. -2. -2. -2.
 -2. -2. -2. -2. -2. -2. -2. -2. -2. -2. -2. -2. -2. -2. -2. -2. -2. -2.
 -2. -2. -2. -2. -2. -2. -2. -2. -2. -2. -2. -2. -2. -2. -2. -2. -2. -2.
 -2. -2. -2. -2. -2. -2. -2. -2. -2. -2. -2. -2. -2. -2. -2. -2. -2. -2.
 -2. -2. -2. -2. -2. -2. -2. -2. -2. -2. -2. -2. -2. -2. -2. -2. -2. -2.
 -2. -2. -2. -2. -2. -2. -2. -2. -2. -2. -2. -2. -2. -2. -2. -2. -2. -2.
 -2. -2. -2. -2. -2. -2. -2. -2. -2. -2. -2. -2. -2. -2. -2. -2. -2. -2.
 -2. -2. -2. -2. -2. -2. -2. -2. -2. -2. -2. -2. -2. -2. -2. -2. -2. -2.
 -2. -2. -2. -2. -2. -2. -2. -2. -2. -2. -2. -2. -2. -2. -2. -2. -2. -2.
 -2. -2. -2. -2. -2. -2. -2. -2. -2. -2. -2. -2. -2. -2. -2. -2. -2. -2.
 -2. -2. -2. -2. -2. -2. -2. -2. -2. -2. -2. -2. -2. -2. -2. -2. -2. -2.
 -2. -2. -2. -2. -2. -2. -2. -2. -2. -2. -2. -2. -2. -2. -2. -2. -2. -2.
 -2. -2. -2. -2. -2. -2. -2. -2. -2. -2. -2. -2. -2. -2. -2. -2. -2. -2.
 -2. -2. -2. -2. -2. -2. -2. -2.]
curve_fitness_values.size: 350
Finished in [4.1115] seconds
init_state.size: 16
init_state: not used for MIMIC
MIMIC
pop_size: 50
keep_pct: 0.1
best_state: [ 5 11  9  3  6  2  2  6 13  0 13  8 14  1  7  2]
best_fitness: -8.0
curve_fitness_values: [-8. -8. -8. -8. -8. -8. -8. -8. -8. -8. -8. -8. -8. -8. -8. -8. -8. -8.
 -8. -8. -8. -8. -8. -8. -8. -8. -8. -8. -8. -8. -8. -8. -8. -8. -8. -8.
 -8. -8. -8. -8. -8. -8. -8. -8. -8. -8. -8. -8. -8. -8. -8. -8. -8. -8.
 -8. -8. -8. -8. -8. -8. -8. -8. -8. -8. -8. -8. -8. -8. -8. -8. -8. -8.
 -8. -8. -8. -8. -8. -8. -8. -8. -8. -8. -8. -8. -8. -8. -8. -8. -8. -8.
 -8. -8. -8. -8. -8. -8. -8. -8. -8. -8. -8. -8. -8. -8. -8. -8. -8. -8.
 -8. -8. -8. -8. -8. -8. -8. -8. -8. -8. -8. -8. -8. -8. -8. -8. -8. -8.
 -8. -8. -8. -8. -8. -8. -8. -8. -8. -8. -8. -8. -8. -8. -8. -8. -8. -8.
 -8. -8. -8. -8. -8. -8. -8. -8. -8. -8. -8. -8. -8. -8. -8. -8. -8. -8.
 -8. -8. -8. -8. -8. -8. -8. -8. -8. -8. -8. -8. -8. -8. -8. -8. -8. -8.
 -8. -8. -8. -8. -8. -8. -8. -8. -8. -8. -8. -8. -8. -8. -8. -8. -8. -8.
 -8. -8. -8. -8. -8. -8. -8. -8. -8. -8. -8. -8. -8. -8. -8. -8. -8. -8.
 -8. -8. -8. -8. -8. -8. -8. -8. -8. -8. -8. -8. -8. -8. -8. -8. -8. -8.
 -8. -8. -8. -8. -8. -8. -8. -8. -8. -8. -8. -8. -8. -8. -8. -8. -8. -8.
 -8. -8. -8. -8. -8. -8. -8. -8. -8. -8. -8. -8. -8. -8. -8. -8. -8. -8.
 -8. -8. -8. -8. -8. -8. -8. -8. -8. -8. -8. -8. -8. -8. -8. -8. -8. -8.
 -8. -8. -8. -8. -8. -8. -8. -8. -8. -8. -8. -8. -8. -8. -8. -8. -8. -8.
 -8. -8. -8. -8. -8. -8. -8. -8. -8. -8. -8. -8. -8. -8. -8. -8. -8. -8.
 -8. -8. -8. -8. -8. -8. -8. -8. -8. -8. -8. -8. -8. -8. -8. -8. -8. -8.
 -8. -8. -8. -8. -8. -8. -8. -8.]
curve_fitness_values.size: 350
Finished in [10.714] seconds
init_state.size: 32
init_state: not used for MIMIC
MIMIC
pop_size: 50
keep_pct: 0.1
best_state: [14  7 22 31 17 10 26  2 24 30 17  2 18 17 12 25 15 14 16  3 31 14 29 10
  4 17 29  9 13 11 20 11]
best_fitness: -23.0
curve_fitness_values: [-23. -23. -23. -23. -23. -23. -23. -23. -23. -23. -23. -23. -23. -23.
 -23. -23. -23. -23. -23. -23. -23. -23. -23. -23. -23. -23. -23. -23.
 -23. -23. -23. -23. -23. -23. -23. -23. -23. -23. -23. -23. -23. -23.
 -23. -23. -23. -23. -23. -23. -23. -23. -23. -23. -23. -23. -23. -23.
 -23. -23. -23. -23. -23. -23. -23. -23. -23. -23. -23. -23. -23. -23.
 -23. -23. -23. -23. -23. -23. -23. -23. -23. -23. -23. -23. -23. -23.
 -23. -23. -23. -23. -23. -23. -23. -23. -23. -23. -23. -23. -23. -23.
 -23. -23. -23. -23. -23. -23. -23. -23. -23. -23. -23. -23. -23. -23.
 -23. -23. -23. -23. -23. -23. -23. -23. -23. -23. -23. -23. -23. -23.
 -23. -23. -23. -23. -23. -23. -23. -23. -23. -23. -23. -23. -23. -23.
 -23. -23. -23. -23. -23. -23. -23. -23. -23. -23. -23. -23. -23. -23.
 -23. -23. -23. -23. -23. -23. -23. -23. -23. -23. -23. -23. -23. -23.
 -23. -23. -23. -23. -23. -23. -23. -23. -23. -23. -23. -23. -23. -23.
 -23. -23. -23. -23. -23. -23. -23. -23. -23. -23. -23. -23. -23. -23.
 -23. -23. -23. -23. -23. -23. -23. -23. -23. -23. -23. -23. -23. -23.
 -23. -23. -23. -23. -23. -23. -23. -23. -23. -23. -23. -23. -23. -23.
 -23. -23. -23. -23. -23. -23. -23. -23. -23. -23. -23. -23. -23. -23.
 -23. -23. -23. -23. -23. -23. -23. -23. -23. -23. -23. -23. -23. -23.
 -23. -23. -23. -23. -23. -23. -23. -23. -23. -23. -23. -23. -23. -23.
 -23. -23. -23. -23. -23. -23. -23. -23. -23. -23. -23. -23. -23. -23.
 -23. -23. -23. -23. -23. -23. -23. -23. -23. -23. -23. -23. -23. -23.
 -23. -23. -23. -23. -23. -23. -23. -23. -23. -23. -23. -23. -23. -23.
 -23. -23. -23. -23. -23. -23. -23. -23. -23. -23. -23. -23. -23. -23.
 -23. -23. -23. -23. -23. -23. -23. -23. -23. -23. -23. -23. -23. -23.
 -23. -23. -23. -23. -23. -23. -23. -23. -23. -23. -23. -23. -23. -23.]
curve_fitness_values.size: 350
Finished in [46.55] seconds
init_state.size: 8
init_state: not used for MIMIC
MIMIC
pop_size: 100
keep_pct: 0.1
best_state: [5 0 5 0 6 1 7 2]
best_fitness: -2.0
curve_fitness_values: [-2. -2. -2. -2. -2. -2. -2. -2. -2. -2. -2. -2. -2. -2. -2. -2. -2. -2.
 -2. -2. -2. -2. -2. -2. -2. -2. -2. -2. -2. -2. -2. -2. -2. -2. -2. -2.
 -2. -2. -2. -2. -2. -2. -2. -2. -2. -2. -2. -2. -2. -2. -2. -2. -2. -2.
 -2. -2. -2. -2. -2. -2. -2. -2. -2. -2. -2. -2. -2. -2. -2. -2. -2. -2.
 -2. -2. -2. -2. -2. -2. -2. -2. -2. -2. -2. -2. -2. -2. -2. -2. -2. -2.
 -2. -2. -2. -2. -2. -2. -2. -2. -2. -2. -2. -2. -2. -2. -2. -2. -2. -2.
 -2. -2. -2. -2. -2. -2. -2. -2. -2. -2. -2. -2. -2. -2. -2. -2. -2. -2.
 -2. -2. -2. -2. -2. -2. -2. -2. -2. -2. -2. -2. -2. -2. -2. -2. -2. -2.
 -2. -2. -2. -2. -2. -2. -2. -2. -2. -2. -2. -2. -2. -2. -2. -2. -2. -2.
 -2. -2. -2. -2. -2. -2. -2. -2. -2. -2. -2. -2. -2. -2. -2. -2. -2. -2.
 -2. -2. -2. -2. -2. -2. -2. -2. -2. -2. -2. -2. -2. -2. -2. -2. -2. -2.
 -2. -2. -2. -2. -2. -2. -2. -2. -2. -2. -2. -2. -2. -2. -2. -2. -2. -2.
 -2. -2. -2. -2. -2. -2. -2. -2. -2. -2. -2. -2. -2. -2. -2. -2. -2. -2.
 -2. -2. -2. -2. -2. -2. -2. -2. -2. -2. -2. -2. -2. -2. -2. -2. -2. -2.
 -2. -2. -2. -2. -2. -2. -2. -2. -2. -2. -2. -2. -2. -2. -2. -2. -2. -2.
 -2. -2. -2. -2. -2. -2. -2. -2. -2. -2. -2. -2. -2. -2. -2. -2. -2. -2.
 -2. -2. -2. -2. -2. -2. -2. -2. -2. -2. -2. -2. -2. -2. -2. -2. -2. -2.
 -2. -2. -2. -2. -2. -2. -2. -2. -2. -2. -2. -2. -2. -2. -2. -2. -2. -2.
 -2. -2. -2. -2. -2. -2. -2. -2. -2. -2. -2. -2. -2. -2. -2. -2. -2. -2.
 -2. -2. -2. -2. -2. -2. -2. -2.]
curve_fitness_values.size: 350
Finished in [6.5603] seconds
init_state.size: 16
init_state: not used for MIMIC
MIMIC
pop_size: 100
keep_pct: 0.1
best_state: [ 5 11  9  3  6  2  2  6 13  0 13  8 14  1  7  2]
best_fitness: -8.0
curve_fitness_values: [-8. -8. -8. -8. -8. -8. -8. -8. -8. -8. -8. -8. -8. -8. -8. -8. -8. -8.
 -8. -8. -8. -8. -8. -8. -8. -8. -8. -8. -8. -8. -8. -8. -8. -8. -8. -8.
 -8. -8. -8. -8. -8. -8. -8. -8. -8. -8. -8. -8. -8. -8. -8. -8. -8. -8.
 -8. -8. -8. -8. -8. -8. -8. -8. -8. -8. -8. -8. -8. -8. -8. -8. -8. -8.
 -8. -8. -8. -8. -8. -8. -8. -8. -8. -8. -8. -8. -8. -8. -8. -8. -8. -8.
 -8. -8. -8. -8. -8. -8. -8. -8. -8. -8. -8. -8. -8. -8. -8. -8. -8. -8.
 -8. -8. -8. -8. -8. -8. -8. -8. -8. -8. -8. -8. -8. -8. -8. -8. -8. -8.
 -8. -8. -8. -8. -8. -8. -8. -8. -8. -8. -8. -8. -8. -8. -8. -8. -8. -8.
 -8. -8. -8. -8. -8. -8. -8. -8. -8. -8. -8. -8. -8. -8. -8. -8. -8. -8.
 -8. -8. -8. -8. -8. -8. -8. -8. -8. -8. -8. -8. -8. -8. -8. -8. -8. -8.
 -8. -8. -8. -8. -8. -8. -8. -8. -8. -8. -8. -8. -8. -8. -8. -8. -8. -8.
 -8. -8. -8. -8. -8. -8. -8. -8. -8. -8. -8. -8. -8. -8. -8. -8. -8. -8.
 -8. -8. -8. -8. -8. -8. -8. -8. -8. -8. -8. -8. -8. -8. -8. -8. -8. -8.
 -8. -8. -8. -8. -8. -8. -8. -8. -8. -8. -8. -8. -8. -8. -8. -8. -8. -8.
 -8. -8. -8. -8. -8. -8. -8. -8. -8. -8. -8. -8. -8. -8. -8. -8. -8. -8.
 -8. -8. -8. -8. -8. -8. -8. -8. -8. -8. -8. -8. -8. -8. -8. -8. -8. -8.
 -8. -8. -8. -8. -8. -8. -8. -8. -8. -8. -8. -8. -8. -8. -8. -8. -8. -8.
 -8. -8. -8. -8. -8. -8. -8. -8. -8. -8. -8. -8. -8. -8. -8. -8. -8. -8.
 -8. -8. -8. -8. -8. -8. -8. -8. -8. -8. -8. -8. -8. -8. -8. -8. -8. -8.
 -8. -8. -8. -8. -8. -8. -8. -8.]
curve_fitness_values.size: 350
Finished in [15.8357] seconds
init_state.size: 32
init_state: not used for MIMIC
MIMIC
pop_size: 100
keep_pct: 0.1
best_state: [ 7  2 25 24  0  7 11 21 25 10 23 14 30  5 30 15  8 15 13 28  8  0  4 21
 17  1 12  3 27 29 24 19]
best_fitness: -20.0
curve_fitness_values: [-20. -20. -20. -20. -20. -20. -20. -20. -20. -20. -20. -20. -20. -20.
 -20. -20. -20. -20. -20. -20. -20. -20. -20. -20. -20. -20. -20. -20.
 -20. -20. -20. -20. -20. -20. -20. -20. -20. -20. -20. -20. -20. -20.
 -20. -20. -20. -20. -20. -20. -20. -20. -20. -20. -20. -20. -20. -20.
 -20. -20. -20. -20. -20. -20. -20. -20. -20. -20. -20. -20. -20. -20.
 -20. -20. -20. -20. -20. -20. -20. -20. -20. -20. -20. -20. -20. -20.
 -20. -20. -20. -20. -20. -20. -20. -20. -20. -20. -20. -20. -20. -20.
 -20. -20. -20. -20. -20. -20. -20. -20. -20. -20. -20. -20. -20. -20.
 -20. -20. -20. -20. -20. -20. -20. -20. -20. -20. -20. -20. -20. -20.
 -20. -20. -20. -20. -20. -20. -20. -20. -20. -20. -20. -20. -20. -20.
 -20. -20. -20. -20. -20. -20. -20. -20. -20. -20. -20. -20. -20. -20.
 -20. -20. -20. -20. -20. -20. -20. -20. -20. -20. -20. -20. -20. -20.
 -20. -20. -20. -20. -20. -20. -20. -20. -20. -20. -20. -20. -20. -20.
 -20. -20. -20. -20. -20. -20. -20. -20. -20. -20. -20. -20. -20. -20.
 -20. -20. -20. -20. -20. -20. -20. -20. -20. -20. -20. -20. -20. -20.
 -20. -20. -20. -20. -20. -20. -20. -20. -20. -20. -20. -20. -20. -20.
 -20. -20. -20. -20. -20. -20. -20. -20. -20. -20. -20. -20. -20. -20.
 -20. -20. -20. -20. -20. -20. -20. -20. -20. -20. -20. -20. -20. -20.
 -20. -20. -20. -20. -20. -20. -20. -20. -20. -20. -20. -20. -20. -20.
 -20. -20. -20. -20. -20. -20. -20. -20. -20. -20. -20. -20. -20. -20.
 -20. -20. -20. -20. -20. -20. -20. -20. -20. -20. -20. -20. -20. -20.
 -20. -20. -20. -20. -20. -20. -20. -20. -20. -20. -20. -20. -20. -20.
 -20. -20. -20. -20. -20. -20. -20. -20. -20. -20. -20. -20. -20. -20.
 -20. -20. -20. -20. -20. -20. -20. -20. -20. -20. -20. -20. -20. -20.
 -20. -20. -20. -20. -20. -20. -20. -20. -20. -20. -20. -20. -20. -20.]
curve_fitness_values.size: 350
Finished in [66.0717] seconds
init_state.size: 8
init_state: not used for MIMIC
MIMIC
pop_size: 150
keep_pct: 0.1
best_state: [4 0 5 0 6 1 7 2]
best_fitness: -1.0
curve_fitness_values: [-2. -1. -1. -1. -1. -1. -1. -1. -1. -1. -1. -1. -1. -1. -1. -1. -1. -1.
 -1. -1. -1. -1. -1. -1. -1. -1. -1. -1. -1. -1. -1. -1. -1. -1. -1. -1.
 -1. -1. -1. -1. -1. -1. -1. -1. -1. -1. -1. -1. -1. -1. -1. -1. -1. -1.
 -1. -1. -1. -1. -1. -1. -1. -1. -1. -1. -1. -1. -1. -1. -1. -1. -1. -1.
 -1. -1. -1. -1. -1. -1. -1. -1. -1. -1. -1. -1. -1. -1. -1. -1. -1. -1.
 -1. -1. -1. -1. -1. -1. -1. -1. -1. -1. -1. -1. -1. -1. -1. -1. -1. -1.
 -1. -1. -1. -1. -1. -1. -1. -1. -1. -1. -1. -1. -1. -1. -1. -1. -1. -1.
 -1. -1. -1. -1. -1. -1. -1. -1. -1. -1. -1. -1. -1. -1. -1. -1. -1. -1.
 -1. -1. -1. -1. -1. -1. -1. -1. -1. -1. -1. -1. -1. -1. -1. -1. -1. -1.
 -1. -1. -1. -1. -1. -1. -1. -1. -1. -1. -1. -1. -1. -1. -1. -1. -1. -1.
 -1. -1. -1. -1. -1. -1. -1. -1. -1. -1. -1. -1. -1. -1. -1. -1. -1. -1.
 -1. -1. -1. -1. -1. -1. -1. -1. -1. -1. -1. -1. -1. -1. -1. -1. -1. -1.
 -1. -1. -1. -1. -1. -1. -1. -1. -1. -1. -1. -1. -1. -1. -1. -1. -1. -1.
 -1. -1. -1. -1. -1. -1. -1. -1. -1. -1. -1. -1. -1. -1. -1. -1. -1. -1.
 -1. -1. -1. -1. -1. -1. -1. -1. -1. -1. -1. -1. -1. -1. -1. -1. -1. -1.
 -1. -1. -1. -1. -1. -1. -1. -1. -1. -1. -1. -1. -1. -1. -1. -1. -1. -1.
 -1. -1. -1. -1. -1. -1. -1. -1. -1. -1. -1. -1. -1. -1. -1. -1. -1. -1.
 -1. -1. -1. -1. -1. -1. -1. -1. -1. -1. -1. -1. -1. -1. -1. -1. -1. -1.
 -1. -1. -1. -1. -1. -1. -1. -1. -1. -1. -1. -1. -1. -1. -1. -1. -1. -1.
 -1. -1. -1. -1. -1. -1. -1. -1.]
curve_fitness_values.size: 350
Finished in [8.9552] seconds
init_state.size: 16
init_state: not used for MIMIC
MIMIC
pop_size: 150
keep_pct: 0.1
best_state: [ 7 12 10  3  5  9  4  4 14  2 13 13  6  1 13  4]
best_fitness: -6.0
curve_fitness_values: [-6. -6. -6. -6. -6. -6. -6. -6. -6. -6. -6. -6. -6. -6. -6. -6. -6. -6.
 -6. -6. -6. -6. -6. -6. -6. -6. -6. -6. -6. -6. -6. -6. -6. -6. -6. -6.
 -6. -6. -6. -6. -6. -6. -6. -6. -6. -6. -6. -6. -6. -6. -6. -6. -6. -6.
 -6. -6. -6. -6. -6. -6. -6. -6. -6. -6. -6. -6. -6. -6. -6. -6. -6. -6.
 -6. -6. -6. -6. -6. -6. -6. -6. -6. -6. -6. -6. -6. -6. -6. -6. -6. -6.
 -6. -6. -6. -6. -6. -6. -6. -6. -6. -6. -6. -6. -6. -6. -6. -6. -6. -6.
 -6. -6. -6. -6. -6. -6. -6. -6. -6. -6. -6. -6. -6. -6. -6. -6. -6. -6.
 -6. -6. -6. -6. -6. -6. -6. -6. -6. -6. -6. -6. -6. -6. -6. -6. -6. -6.
 -6. -6. -6. -6. -6. -6. -6. -6. -6. -6. -6. -6. -6. -6. -6. -6. -6. -6.
 -6. -6. -6. -6. -6. -6. -6. -6. -6. -6. -6. -6. -6. -6. -6. -6. -6. -6.
 -6. -6. -6. -6. -6. -6. -6. -6. -6. -6. -6. -6. -6. -6. -6. -6. -6. -6.
 -6. -6. -6. -6. -6. -6. -6. -6. -6. -6. -6. -6. -6. -6. -6. -6. -6. -6.
 -6. -6. -6. -6. -6. -6. -6. -6. -6. -6. -6. -6. -6. -6. -6. -6. -6. -6.
 -6. -6. -6. -6. -6. -6. -6. -6. -6. -6. -6. -6. -6. -6. -6. -6. -6. -6.
 -6. -6. -6. -6. -6. -6. -6. -6. -6. -6. -6. -6. -6. -6. -6. -6. -6. -6.
 -6. -6. -6. -6. -6. -6. -6. -6. -6. -6. -6. -6. -6. -6. -6. -6. -6. -6.
 -6. -6. -6. -6. -6. -6. -6. -6. -6. -6. -6. -6. -6. -6. -6. -6. -6. -6.
 -6. -6. -6. -6. -6. -6. -6. -6. -6. -6. -6. -6. -6. -6. -6. -6. -6. -6.
 -6. -6. -6. -6. -6. -6. -6. -6. -6. -6. -6. -6. -6. -6. -6. -6. -6. -6.
 -6. -6. -6. -6. -6. -6. -6. -6.]
curve_fitness_values.size: 350
Finished in [20.7747] seconds
init_state.size: 32
init_state: not used for MIMIC
MIMIC
pop_size: 150
keep_pct: 0.1
best_state: [18 13 30 30  1 16 26  0 30 28 17 12 22 10 19 14 15 19 25 28  8 24  2 31
 20 11  2 30 23  4 19 18]
best_fitness: -20.0
curve_fitness_values: [-20. -20. -20. -20. -20. -20. -20. -20. -20. -20. -20. -20. -20. -20.
 -20. -20. -20. -20. -20. -20. -20. -20. -20. -20. -20. -20. -20. -20.
 -20. -20. -20. -20. -20. -20. -20. -20. -20. -20. -20. -20. -20. -20.
 -20. -20. -20. -20. -20. -20. -20. -20. -20. -20. -20. -20. -20. -20.
 -20. -20. -20. -20. -20. -20. -20. -20. -20. -20. -20. -20. -20. -20.
 -20. -20. -20. -20. -20. -20. -20. -20. -20. -20. -20. -20. -20. -20.
 -20. -20. -20. -20. -20. -20. -20. -20. -20. -20. -20. -20. -20. -20.
 -20. -20. -20. -20. -20. -20. -20. -20. -20. -20. -20. -20. -20. -20.
 -20. -20. -20. -20. -20. -20. -20. -20. -20. -20. -20. -20. -20. -20.
 -20. -20. -20. -20. -20. -20. -20. -20. -20. -20. -20. -20. -20. -20.
 -20. -20. -20. -20. -20. -20. -20. -20. -20. -20. -20. -20. -20. -20.
 -20. -20. -20. -20. -20. -20. -20. -20. -20. -20. -20. -20. -20. -20.
 -20. -20. -20. -20. -20. -20. -20. -20. -20. -20. -20. -20. -20. -20.
 -20. -20. -20. -20. -20. -20. -20. -20. -20. -20. -20. -20. -20. -20.
 -20. -20. -20. -20. -20. -20. -20. -20. -20. -20. -20. -20. -20. -20.
 -20. -20. -20. -20. -20. -20. -20. -20. -20. -20. -20. -20. -20. -20.
 -20. -20. -20. -20. -20. -20. -20. -20. -20. -20. -20. -20. -20. -20.
 -20. -20. -20. -20. -20. -20. -20. -20. -20. -20. -20. -20. -20. -20.
 -20. -20. -20. -20. -20. -20. -20. -20. -20. -20. -20. -20. -20. -20.
 -20. -20. -20. -20. -20. -20. -20. -20. -20. -20. -20. -20. -20. -20.
 -20. -20. -20. -20. -20. -20. -20. -20. -20. -20. -20. -20. -20. -20.
 -20. -20. -20. -20. -20. -20. -20. -20. -20. -20. -20. -20. -20. -20.
 -20. -20. -20. -20. -20. -20. -20. -20. -20. -20. -20. -20. -20. -20.
 -20. -20. -20. -20. -20. -20. -20. -20. -20. -20. -20. -20. -20. -20.
 -20. -20. -20. -20. -20. -20. -20. -20. -20. -20. -20. -20. -20. -20.]
curve_fitness_values.size: 350
Finished in [77.4456] seconds
init_state.size: 8
init_state: not used for MIMIC
MIMIC
pop_size: 50
keep_pct: 0.2
best_state: [6 3 5 0 4 0 2 7]
best_fitness: -3.0
curve_fitness_values: [-3. -3. -3. -3. -3. -3. -3. -3. -3. -3. -3. -3. -3. -3. -3. -3. -3. -3.
 -3. -3. -3. -3. -3. -3. -3. -3. -3. -3. -3. -3. -3. -3. -3. -3. -3. -3.
 -3. -3. -3. -3. -3. -3. -3. -3. -3. -3. -3. -3. -3. -3. -3. -3. -3. -3.
 -3. -3. -3. -3. -3. -3. -3. -3. -3. -3. -3. -3. -3. -3. -3. -3. -3. -3.
 -3. -3. -3. -3. -3. -3. -3. -3. -3. -3. -3. -3. -3. -3. -3. -3. -3. -3.
 -3. -3. -3. -3. -3. -3. -3. -3. -3. -3. -3. -3. -3. -3. -3. -3. -3. -3.
 -3. -3. -3. -3. -3. -3. -3. -3. -3. -3. -3. -3. -3. -3. -3. -3. -3. -3.
 -3. -3. -3. -3. -3. -3. -3. -3. -3. -3. -3. -3. -3. -3. -3. -3. -3. -3.
 -3. -3. -3. -3. -3. -3. -3. -3. -3. -3. -3. -3. -3. -3. -3. -3. -3. -3.
 -3. -3. -3. -3. -3. -3. -3. -3. -3. -3. -3. -3. -3. -3. -3. -3. -3. -3.
 -3. -3. -3. -3. -3. -3. -3. -3. -3. -3. -3. -3. -3. -3. -3. -3. -3. -3.
 -3. -3. -3. -3. -3. -3. -3. -3. -3. -3. -3. -3. -3. -3. -3. -3. -3. -3.
 -3. -3. -3. -3. -3. -3. -3. -3. -3. -3. -3. -3. -3. -3. -3. -3. -3. -3.
 -3. -3. -3. -3. -3. -3. -3. -3. -3. -3. -3. -3. -3. -3. -3. -3. -3. -3.
 -3. -3. -3. -3. -3. -3. -3. -3. -3. -3. -3. -3. -3. -3. -3. -3. -3. -3.
 -3. -3. -3. -3. -3. -3. -3. -3. -3. -3. -3. -3. -3. -3. -3. -3. -3. -3.
 -3. -3. -3. -3. -3. -3. -3. -3. -3. -3. -3. -3. -3. -3. -3. -3. -3. -3.
 -3. -3. -3. -3. -3. -3. -3. -3. -3. -3. -3. -3. -3. -3. -3. -3. -3. -3.
 -3. -3. -3. -3. -3. -3. -3. -3. -3. -3. -3. -3. -3. -3. -3. -3. -3. -3.
 -3. -3. -3. -3. -3. -3. -3. -3.]
curve_fitness_values.size: 350
Finished in [4.066] seconds
init_state.size: 16
init_state: not used for MIMIC
MIMIC
pop_size: 50
keep_pct: 0.2
best_state: [14  5 10  1  7  5 11  8  4 15  8  0  7  6  2  7]
best_fitness: -8.0
curve_fitness_values: [-9. -8. -8. -8. -8. -8. -8. -8. -8. -8. -8. -8. -8. -8. -8. -8. -8. -8.
 -8. -8. -8. -8. -8. -8. -8. -8. -8. -8. -8. -8. -8. -8. -8. -8. -8. -8.
 -8. -8. -8. -8. -8. -8. -8. -8. -8. -8. -8. -8. -8. -8. -8. -8. -8. -8.
 -8. -8. -8. -8. -8. -8. -8. -8. -8. -8. -8. -8. -8. -8. -8. -8. -8. -8.
 -8. -8. -8. -8. -8. -8. -8. -8. -8. -8. -8. -8. -8. -8. -8. -8. -8. -8.
 -8. -8. -8. -8. -8. -8. -8. -8. -8. -8. -8. -8. -8. -8. -8. -8. -8. -8.
 -8. -8. -8. -8. -8. -8. -8. -8. -8. -8. -8. -8. -8. -8. -8. -8. -8. -8.
 -8. -8. -8. -8. -8. -8. -8. -8. -8. -8. -8. -8. -8. -8. -8. -8. -8. -8.
 -8. -8. -8. -8. -8. -8. -8. -8. -8. -8. -8. -8. -8. -8. -8. -8. -8. -8.
 -8. -8. -8. -8. -8. -8. -8. -8. -8. -8. -8. -8. -8. -8. -8. -8. -8. -8.
 -8. -8. -8. -8. -8. -8. -8. -8. -8. -8. -8. -8. -8. -8. -8. -8. -8. -8.
 -8. -8. -8. -8. -8. -8. -8. -8. -8. -8. -8. -8. -8. -8. -8. -8. -8. -8.
 -8. -8. -8. -8. -8. -8. -8. -8. -8. -8. -8. -8. -8. -8. -8. -8. -8. -8.
 -8. -8. -8. -8. -8. -8. -8. -8. -8. -8. -8. -8. -8. -8. -8. -8. -8. -8.
 -8. -8. -8. -8. -8. -8. -8. -8. -8. -8. -8. -8. -8. -8. -8. -8. -8. -8.
 -8. -8. -8. -8. -8. -8. -8. -8. -8. -8. -8. -8. -8. -8. -8. -8. -8. -8.
 -8. -8. -8. -8. -8. -8. -8. -8. -8. -8. -8. -8. -8. -8. -8. -8. -8. -8.
 -8. -8. -8. -8. -8. -8. -8. -8. -8. -8. -8. -8. -8. -8. -8. -8. -8. -8.
 -8. -8. -8. -8. -8. -8. -8. -8. -8. -8. -8. -8. -8. -8. -8. -8. -8. -8.
 -8. -8. -8. -8. -8. -8. -8. -8.]
curve_fitness_values.size: 350
Finished in [10.634] seconds
init_state.size: 32
init_state: not used for MIMIC
MIMIC
pop_size: 50
keep_pct: 0.2
best_state: [18 20 15  3 12  8  1 19 19 18  5 25 11 29 10 14  1 27 16 14 30 30 27 15
  1 27 27 19 17  6  1 17]
best_fitness: -23.0
curve_fitness_values: [-23. -23. -23. -23. -23. -23. -23. -23. -23. -23. -23. -23. -23. -23.
 -23. -23. -23. -23. -23. -23. -23. -23. -23. -23. -23. -23. -23. -23.
 -23. -23. -23. -23. -23. -23. -23. -23. -23. -23. -23. -23. -23. -23.
 -23. -23. -23. -23. -23. -23. -23. -23. -23. -23. -23. -23. -23. -23.
 -23. -23. -23. -23. -23. -23. -23. -23. -23. -23. -23. -23. -23. -23.
 -23. -23. -23. -23. -23. -23. -23. -23. -23. -23. -23. -23. -23. -23.
 -23. -23. -23. -23. -23. -23. -23. -23. -23. -23. -23. -23. -23. -23.
 -23. -23. -23. -23. -23. -23. -23. -23. -23. -23. -23. -23. -23. -23.
 -23. -23. -23. -23. -23. -23. -23. -23. -23. -23. -23. -23. -23. -23.
 -23. -23. -23. -23. -23. -23. -23. -23. -23. -23. -23. -23. -23. -23.
 -23. -23. -23. -23. -23. -23. -23. -23. -23. -23. -23. -23. -23. -23.
 -23. -23. -23. -23. -23. -23. -23. -23. -23. -23. -23. -23. -23. -23.
 -23. -23. -23. -23. -23. -23. -23. -23. -23. -23. -23. -23. -23. -23.
 -23. -23. -23. -23. -23. -23. -23. -23. -23. -23. -23. -23. -23. -23.
 -23. -23. -23. -23. -23. -23. -23. -23. -23. -23. -23. -23. -23. -23.
 -23. -23. -23. -23. -23. -23. -23. -23. -23. -23. -23. -23. -23. -23.
 -23. -23. -23. -23. -23. -23. -23. -23. -23. -23. -23. -23. -23. -23.
 -23. -23. -23. -23. -23. -23. -23. -23. -23. -23. -23. -23. -23. -23.
 -23. -23. -23. -23. -23. -23. -23. -23. -23. -23. -23. -23. -23. -23.
 -23. -23. -23. -23. -23. -23. -23. -23. -23. -23. -23. -23. -23. -23.
 -23. -23. -23. -23. -23. -23. -23. -23. -23. -23. -23. -23. -23. -23.
 -23. -23. -23. -23. -23. -23. -23. -23. -23. -23. -23. -23. -23. -23.
 -23. -23. -23. -23. -23. -23. -23. -23. -23. -23. -23. -23. -23. -23.
 -23. -23. -23. -23. -23. -23. -23. -23. -23. -23. -23. -23. -23. -23.
 -23. -23. -23. -23. -23. -23. -23. -23. -23. -23. -23. -23. -23. -23.]
curve_fitness_values.size: 350
Finished in [46.0407] seconds
init_state.size: 8
init_state: not used for MIMIC
MIMIC
pop_size: 100
keep_pct: 0.2
best_state: [1 5 2 4 6 0 3 5]
best_fitness: -2.0
curve_fitness_values: [-3. -2. -2. -2. -2. -2. -2. -2. -2. -2. -2. -2. -2. -2. -2. -2. -2. -2.
 -2. -2. -2. -2. -2. -2. -2. -2. -2. -2. -2. -2. -2. -2. -2. -2. -2. -2.
 -2. -2. -2. -2. -2. -2. -2. -2. -2. -2. -2. -2. -2. -2. -2. -2. -2. -2.
 -2. -2. -2. -2. -2. -2. -2. -2. -2. -2. -2. -2. -2. -2. -2. -2. -2. -2.
 -2. -2. -2. -2. -2. -2. -2. -2. -2. -2. -2. -2. -2. -2. -2. -2. -2. -2.
 -2. -2. -2. -2. -2. -2. -2. -2. -2. -2. -2. -2. -2. -2. -2. -2. -2. -2.
 -2. -2. -2. -2. -2. -2. -2. -2. -2. -2. -2. -2. -2. -2. -2. -2. -2. -2.
 -2. -2. -2. -2. -2. -2. -2. -2. -2. -2. -2. -2. -2. -2. -2. -2. -2. -2.
 -2. -2. -2. -2. -2. -2. -2. -2. -2. -2. -2. -2. -2. -2. -2. -2. -2. -2.
 -2. -2. -2. -2. -2. -2. -2. -2. -2. -2. -2. -2. -2. -2. -2. -2. -2. -2.
 -2. -2. -2. -2. -2. -2. -2. -2. -2. -2. -2. -2. -2. -2. -2. -2. -2. -2.
 -2. -2. -2. -2. -2. -2. -2. -2. -2. -2. -2. -2. -2. -2. -2. -2. -2. -2.
 -2. -2. -2. -2. -2. -2. -2. -2. -2. -2. -2. -2. -2. -2. -2. -2. -2. -2.
 -2. -2. -2. -2. -2. -2. -2. -2. -2. -2. -2. -2. -2. -2. -2. -2. -2. -2.
 -2. -2. -2. -2. -2. -2. -2. -2. -2. -2. -2. -2. -2. -2. -2. -2. -2. -2.
 -2. -2. -2. -2. -2. -2. -2. -2. -2. -2. -2. -2. -2. -2. -2. -2. -2. -2.
 -2. -2. -2. -2. -2. -2. -2. -2. -2. -2. -2. -2. -2. -2. -2. -2. -2. -2.
 -2. -2. -2. -2. -2. -2. -2. -2. -2. -2. -2. -2. -2. -2. -2. -2. -2. -2.
 -2. -2. -2. -2. -2. -2. -2. -2. -2. -2. -2. -2. -2. -2. -2. -2. -2. -2.
 -2. -2. -2. -2. -2. -2. -2. -2.]
curve_fitness_values.size: 350
Finished in [6.5159] seconds
init_state.size: 16
init_state: not used for MIMIC
MIMIC
pop_size: 100
keep_pct: 0.2
best_state: [ 7  8  3  0 14 11  6  3 13 13  1  9  5 12  4  9]
best_fitness: -5.0
curve_fitness_values: [-7. -5. -5. -5. -5. -5. -5. -5. -5. -5. -5. -5. -5. -5. -5. -5. -5. -5.
 -5. -5. -5. -5. -5. -5. -5. -5. -5. -5. -5. -5. -5. -5. -5. -5. -5. -5.
 -5. -5. -5. -5. -5. -5. -5. -5. -5. -5. -5. -5. -5. -5. -5. -5. -5. -5.
 -5. -5. -5. -5. -5. -5. -5. -5. -5. -5. -5. -5. -5. -5. -5. -5. -5. -5.
 -5. -5. -5. -5. -5. -5. -5. -5. -5. -5. -5. -5. -5. -5. -5. -5. -5. -5.
 -5. -5. -5. -5. -5. -5. -5. -5. -5. -5. -5. -5. -5. -5. -5. -5. -5. -5.
 -5. -5. -5. -5. -5. -5. -5. -5. -5. -5. -5. -5. -5. -5. -5. -5. -5. -5.
 -5. -5. -5. -5. -5. -5. -5. -5. -5. -5. -5. -5. -5. -5. -5. -5. -5. -5.
 -5. -5. -5. -5. -5. -5. -5. -5. -5. -5. -5. -5. -5. -5. -5. -5. -5. -5.
 -5. -5. -5. -5. -5. -5. -5. -5. -5. -5. -5. -5. -5. -5. -5. -5. -5. -5.
 -5. -5. -5. -5. -5. -5. -5. -5. -5. -5. -5. -5. -5. -5. -5. -5. -5. -5.
 -5. -5. -5. -5. -5. -5. -5. -5. -5. -5. -5. -5. -5. -5. -5. -5. -5. -5.
 -5. -5. -5. -5. -5. -5. -5. -5. -5. -5. -5. -5. -5. -5. -5. -5. -5. -5.
 -5. -5. -5. -5. -5. -5. -5. -5. -5. -5. -5. -5. -5. -5. -5. -5. -5. -5.
 -5. -5. -5. -5. -5. -5. -5. -5. -5. -5. -5. -5. -5. -5. -5. -5. -5. -5.
 -5. -5. -5. -5. -5. -5. -5. -5. -5. -5. -5. -5. -5. -5. -5. -5. -5. -5.
 -5. -5. -5. -5. -5. -5. -5. -5. -5. -5. -5. -5. -5. -5. -5. -5. -5. -5.
 -5. -5. -5. -5. -5. -5. -5. -5. -5. -5. -5. -5. -5. -5. -5. -5. -5. -5.
 -5. -5. -5. -5. -5. -5. -5. -5. -5. -5. -5. -5. -5. -5. -5. -5. -5. -5.
 -5. -5. -5. -5. -5. -5. -5. -5.]
curve_fitness_values.size: 350
Finished in [14.9995] seconds
init_state.size: 32
init_state: not used for MIMIC
MIMIC
pop_size: 100
keep_pct: 0.2
best_state: [ 7  2 25 24  0  7 11 21 25 10 23 14 30  5 30 15  8 15 13 28  8  0  4 21
 17  1 12  3 27 29 24 19]
best_fitness: -20.0
curve_fitness_values: [-20. -20. -20. -20. -20. -20. -20. -20. -20. -20. -20. -20. -20. -20.
 -20. -20. -20. -20. -20. -20. -20. -20. -20. -20. -20. -20. -20. -20.
 -20. -20. -20. -20. -20. -20. -20. -20. -20. -20. -20. -20. -20. -20.
 -20. -20. -20. -20. -20. -20. -20. -20. -20. -20. -20. -20. -20. -20.
 -20. -20. -20. -20. -20. -20. -20. -20. -20. -20. -20. -20. -20. -20.
 -20. -20. -20. -20. -20. -20. -20. -20. -20. -20. -20. -20. -20. -20.
 -20. -20. -20. -20. -20. -20. -20. -20. -20. -20. -20. -20. -20. -20.
 -20. -20. -20. -20. -20. -20. -20. -20. -20. -20. -20. -20. -20. -20.
 -20. -20. -20. -20. -20. -20. -20. -20. -20. -20. -20. -20. -20. -20.
 -20. -20. -20. -20. -20. -20. -20. -20. -20. -20. -20. -20. -20. -20.
 -20. -20. -20. -20. -20. -20. -20. -20. -20. -20. -20. -20. -20. -20.
 -20. -20. -20. -20. -20. -20. -20. -20. -20. -20. -20. -20. -20. -20.
 -20. -20. -20. -20. -20. -20. -20. -20. -20. -20. -20. -20. -20. -20.
 -20. -20. -20. -20. -20. -20. -20. -20. -20. -20. -20. -20. -20. -20.
 -20. -20. -20. -20. -20. -20. -20. -20. -20. -20. -20. -20. -20. -20.
 -20. -20. -20. -20. -20. -20. -20. -20. -20. -20. -20. -20. -20. -20.
 -20. -20. -20. -20. -20. -20. -20. -20. -20. -20. -20. -20. -20. -20.
 -20. -20. -20. -20. -20. -20. -20. -20. -20. -20. -20. -20. -20. -20.
 -20. -20. -20. -20. -20. -20. -20. -20. -20. -20. -20. -20. -20. -20.
 -20. -20. -20. -20. -20. -20. -20. -20. -20. -20. -20. -20. -20. -20.
 -20. -20. -20. -20. -20. -20. -20. -20. -20. -20. -20. -20. -20. -20.
 -20. -20. -20. -20. -20. -20. -20. -20. -20. -20. -20. -20. -20. -20.
 -20. -20. -20. -20. -20. -20. -20. -20. -20. -20. -20. -20. -20. -20.
 -20. -20. -20. -20. -20. -20. -20. -20. -20. -20. -20. -20. -20. -20.
 -20. -20. -20. -20. -20. -20. -20. -20. -20. -20. -20. -20. -20. -20.]
curve_fitness_values.size: 350
Finished in [59.9038] seconds
init_state.size: 8
init_state: not used for MIMIC
MIMIC
pop_size: 150
keep_pct: 0.2
best_state: [2 4 7 0 0 6 1 5]
best_fitness: -1.0
curve_fitness_values: [-2. -1. -1. -1. -1. -1. -1. -1. -1. -1. -1. -1. -1. -1. -1. -1. -1. -1.
 -1. -1. -1. -1. -1. -1. -1. -1. -1. -1. -1. -1. -1. -1. -1. -1. -1. -1.
 -1. -1. -1. -1. -1. -1. -1. -1. -1. -1. -1. -1. -1. -1. -1. -1. -1. -1.
 -1. -1. -1. -1. -1. -1. -1. -1. -1. -1. -1. -1. -1. -1. -1. -1. -1. -1.
 -1. -1. -1. -1. -1. -1. -1. -1. -1. -1. -1. -1. -1. -1. -1. -1. -1. -1.
 -1. -1. -1. -1. -1. -1. -1. -1. -1. -1. -1. -1. -1. -1. -1. -1. -1. -1.
 -1. -1. -1. -1. -1. -1. -1. -1. -1. -1. -1. -1. -1. -1. -1. -1. -1. -1.
 -1. -1. -1. -1. -1. -1. -1. -1. -1. -1. -1. -1. -1. -1. -1. -1. -1. -1.
 -1. -1. -1. -1. -1. -1. -1. -1. -1. -1. -1. -1. -1. -1. -1. -1. -1. -1.
 -1. -1. -1. -1. -1. -1. -1. -1. -1. -1. -1. -1. -1. -1. -1. -1. -1. -1.
 -1. -1. -1. -1. -1. -1. -1. -1. -1. -1. -1. -1. -1. -1. -1. -1. -1. -1.
 -1. -1. -1. -1. -1. -1. -1. -1. -1. -1. -1. -1. -1. -1. -1. -1. -1. -1.
 -1. -1. -1. -1. -1. -1. -1. -1. -1. -1. -1. -1. -1. -1. -1. -1. -1. -1.
 -1. -1. -1. -1. -1. -1. -1. -1. -1. -1. -1. -1. -1. -1. -1. -1. -1. -1.
 -1. -1. -1. -1. -1. -1. -1. -1. -1. -1. -1. -1. -1. -1. -1. -1. -1. -1.
 -1. -1. -1. -1. -1. -1. -1. -1. -1. -1. -1. -1. -1. -1. -1. -1. -1. -1.
 -1. -1. -1. -1. -1. -1. -1. -1. -1. -1. -1. -1. -1. -1. -1. -1. -1. -1.
 -1. -1. -1. -1. -1. -1. -1. -1. -1. -1. -1. -1. -1. -1. -1. -1. -1. -1.
 -1. -1. -1. -1. -1. -1. -1. -1. -1. -1. -1. -1. -1. -1. -1. -1. -1. -1.
 -1. -1. -1. -1. -1. -1. -1. -1.]
curve_fitness_values.size: 350
Finished in [8.9294] seconds
init_state.size: 16
init_state: not used for MIMIC
MIMIC
pop_size: 150
keep_pct: 0.2
best_state: [12  1 15  2 12  3  0 11 14  0  3 13 13  9  6  4]
best_fitness: -5.0
curve_fitness_values: [-8. -7. -7. -6. -5. -5. -5. -5. -5. -5. -5. -5. -5. -5. -5. -5. -5. -5.
 -5. -5. -5. -5. -5. -5. -5. -5. -5. -5. -5. -5. -5. -5. -5. -5. -5. -5.
 -5. -5. -5. -5. -5. -5. -5. -5. -5. -5. -5. -5. -5. -5. -5. -5. -5. -5.
 -5. -5. -5. -5. -5. -5. -5. -5. -5. -5. -5. -5. -5. -5. -5. -5. -5. -5.
 -5. -5. -5. -5. -5. -5. -5. -5. -5. -5. -5. -5. -5. -5. -5. -5. -5. -5.
 -5. -5. -5. -5. -5. -5. -5. -5. -5. -5. -5. -5. -5. -5. -5. -5. -5. -5.
 -5. -5. -5. -5. -5. -5. -5. -5. -5. -5. -5. -5. -5. -5. -5. -5. -5. -5.
 -5. -5. -5. -5. -5. -5. -5. -5. -5. -5. -5. -5. -5. -5. -5. -5. -5. -5.
 -5. -5. -5. -5. -5. -5. -5. -5. -5. -5. -5. -5. -5. -5. -5. -5. -5. -5.
 -5. -5. -5. -5. -5. -5. -5. -5. -5. -5. -5. -5. -5. -5. -5. -5. -5. -5.
 -5. -5. -5. -5. -5. -5. -5. -5. -5. -5. -5. -5. -5. -5. -5. -5. -5. -5.
 -5. -5. -5. -5. -5. -5. -5. -5. -5. -5. -5. -5. -5. -5. -5. -5. -5. -5.
 -5. -5. -5. -5. -5. -5. -5. -5. -5. -5. -5. -5. -5. -5. -5. -5. -5. -5.
 -5. -5. -5. -5. -5. -5. -5. -5. -5. -5. -5. -5. -5. -5. -5. -5. -5. -5.
 -5. -5. -5. -5. -5. -5. -5. -5. -5. -5. -5. -5. -5. -5. -5. -5. -5. -5.
 -5. -5. -5. -5. -5. -5. -5. -5. -5. -5. -5. -5. -5. -5. -5. -5. -5. -5.
 -5. -5. -5. -5. -5. -5. -5. -5. -5. -5. -5. -5. -5. -5. -5. -5. -5. -5.
 -5. -5. -5. -5. -5. -5. -5. -5. -5. -5. -5. -5. -5. -5. -5. -5. -5. -5.
 -5. -5. -5. -5. -5. -5. -5. -5. -5. -5. -5. -5. -5. -5. -5. -5. -5. -5.
 -5. -5. -5. -5. -5. -5. -5. -5.]
curve_fitness_values.size: 350
Finished in [20.6582] seconds
init_state.size: 32
init_state: not used for MIMIC
MIMIC
pop_size: 150
keep_pct: 0.2
best_state: [ 3 30 10 20 24  4 12 28 14  4 19 25  6 20 18 25  2 29  1 19 10 26 27 24
  9  7 29  5 25 21  4 10]
best_fitness: -21.0
curve_fitness_values: [-21. -21. -21. -21. -21. -21. -21. -21. -21. -21. -21. -21. -21. -21.
 -21. -21. -21. -21. -21. -21. -21. -21. -21. -21. -21. -21. -21. -21.
 -21. -21. -21. -21. -21. -21. -21. -21. -21. -21. -21. -21. -21. -21.
 -21. -21. -21. -21. -21. -21. -21. -21. -21. -21. -21. -21. -21. -21.
 -21. -21. -21. -21. -21. -21. -21. -21. -21. -21. -21. -21. -21. -21.
 -21. -21. -21. -21. -21. -21. -21. -21. -21. -21. -21. -21. -21. -21.
 -21. -21. -21. -21. -21. -21. -21. -21. -21. -21. -21. -21. -21. -21.
 -21. -21. -21. -21. -21. -21. -21. -21. -21. -21. -21. -21. -21. -21.
 -21. -21. -21. -21. -21. -21. -21. -21. -21. -21. -21. -21. -21. -21.
 -21. -21. -21. -21. -21. -21. -21. -21. -21. -21. -21. -21. -21. -21.
 -21. -21. -21. -21. -21. -21. -21. -21. -21. -21. -21. -21. -21. -21.
 -21. -21. -21. -21. -21. -21. -21. -21. -21. -21. -21. -21. -21. -21.
 -21. -21. -21. -21. -21. -21. -21. -21. -21. -21. -21. -21. -21. -21.
 -21. -21. -21. -21. -21. -21. -21. -21. -21. -21. -21. -21. -21. -21.
 -21. -21. -21. -21. -21. -21. -21. -21. -21. -21. -21. -21. -21. -21.
 -21. -21. -21. -21. -21. -21. -21. -21. -21. -21. -21. -21. -21. -21.
 -21. -21. -21. -21. -21. -21. -21. -21. -21. -21. -21. -21. -21. -21.
 -21. -21. -21. -21. -21. -21. -21. -21. -21. -21. -21. -21. -21. -21.
 -21. -21. -21. -21. -21. -21. -21. -21. -21. -21. -21. -21. -21. -21.
 -21. -21. -21. -21. -21. -21. -21. -21. -21. -21. -21. -21. -21. -21.
 -21. -21. -21. -21. -21. -21. -21. -21. -21. -21. -21. -21. -21. -21.
 -21. -21. -21. -21. -21. -21. -21. -21. -21. -21. -21. -21. -21. -21.
 -21. -21. -21. -21. -21. -21. -21. -21. -21. -21. -21. -21. -21. -21.
 -21. -21. -21. -21. -21. -21. -21. -21. -21. -21. -21. -21. -21. -21.
 -21. -21. -21. -21. -21. -21. -21. -21. -21. -21. -21. -21. -21. -21.]
curve_fitness_values.size: 350
Finished in [87.5299] seconds
